<?xml version="1.0" encoding="utf-8"?>
<!-- Generator: Adobe Illustrator 25.2.1, SVG Export Plug-In . SVG Version: 6.00 Build 0)  -->
<svg version="1.1" id="Layer_1" xmlns="http://www.w3.org/2000/svg" xmlns:xlink="http://www.w3.org/1999/xlink" x="0px" y="0px"
	 viewBox="0 0 39.1 37.8" style="enable-background:new 0 0 39.1 37.8;" xml:space="preserve">
<style type="text/css">
	.st0{fill:none;stroke:#70C658;stroke-width:6;stroke-linecap:round;stroke-linejoin:round;}
</style>
<path class="st0" d="M19.7,26.5l-0.2-10.9v10.9L9.1,31.1l10.5-3.5l10.3,3.7L19.7,26.5z"/>
<path class="st0" d="M-22.6,31.8l-0.2-25.9v25.9l-10.4-10.3L-22.7,33l10.3-11.3L-22.6,31.8z"/>
</svg>
