<svg width="28" height="23" viewBox="0 0 28 23" fill="none" xmlns="http://www.w3.org/2000/svg">
<path fill-rule="evenodd" clip-rule="evenodd" d="M2.54545 0H25.4545C26.8604 0 28 1.13964 28 2.54545V20.3636C28 21.7695 26.8604 22.9091 25.4545 22.9091H2.54545C1.13964 22.9091 0 21.7695 0 20.3636V2.54545C0 1.13964 1.13964 0 2.54545 0ZM2.54545 8.4231V20.3636H25.4545V8.42363L14 14.1509L2.54545 8.4231ZM2.54545 5.57713L14 11.305L25.4545 5.57773V2.54539H2.54545V5.57713Z" fill="white"/>
</svg>
